%!Adobe-FontList 1.16
%Locale:0x409

%BeginFont
Handler:DirectoryHandler
FontType:TrueType
FontName:AppleSymbols
FamilyName:Apple Symbols
StyleName:Regular
FullName:Apple Symbols
MenuName:Apple Symbols
StyleBits:0
FamilyNameNative:Apple Symbols
StyleNameNative:Regular
FullNameNative:Apple Symbols Regular
WritingScript:Greek
OutlineFileName:D:\_projects\yipkos\rfid\kiosk_assets\AMPY16FLSH0543 - CMSC 2016 Digital Survey - L19 Folder\AMPY16FLSH0543 - CMSC 2016 Digital Survey - L19 Folder\Document fonts\Apple Symbols.ttc
TTCOffset:28
DataFormat:sfntData
FileLength:1681044
FileModTime:1440293532
WeightClass:400
WidthClass:5
AngleClass:0
NameArray:0,Mac,18,Apple Symbols
NameArray:0,Mac,4,Apple Symbols
NameArray:0,Win,1,Apple Symbols
%EndFont

%BeginFont
Handler:DirectoryHandler
FontType:TrueType
FontName:ArialMT
FamilyName:Arial
StyleName:Regular
FullName:Arial
MenuName:Arial
StyleBits:0
WritingScript:Roman
OutlineFileName:D:\_projects\yipkos\rfid\kiosk_assets\AMPY16FLSH0543 - CMSC 2016 Digital Survey - L19 Folder\AMPY16FLSH0543 - CMSC 2016 Digital Survey - L19 Folder\Document fonts\Arial.ttf
DataFormat:sfntData
FileLength:774476
FileModTime:1299758400
WeightClass:400
WidthClass:5
AngleClass:0
NameArray:0,Mac,4,Arial
NameArray:0,Win,1,Arial
%EndFont

%BeginFont
Handler:DirectoryHandler
FontType:TrueType
FontName:CourierNewPSMT
FamilyName:Courier New
StyleName:Regular
FullName:Courier New
MenuName:Courier New
StyleBits:0
WritingScript:Roman
OutlineFileName:D:\_projects\yipkos\rfid\kiosk_assets\AMPY16FLSH0543 - CMSC 2016 Digital Survey - L19 Folder\AMPY16FLSH0543 - CMSC 2016 Digital Survey - L19 Folder\Document fonts\Courier New.ttf
DataFormat:sfntData
FileLength:684624
FileModTime:1440293534
WeightClass:400
WidthClass:5
AngleClass:0
NameArray:0,Mac,4,Courier New
NameArray:0,Win,1,Courier New
%EndFont

%BeginFont
Handler:DirectoryHandler
FontType:Type1
FontName:HelveticaNeueLTPro-Bd
FamilyName:Helvetica Neue LT Pro
StyleName:75 Bold
FullName:Helvetica Neue LT Pro 75 Bold
MenuName:HelveticaNeueLT Pro 55 Roman
StyleBits:2
WritingScript:Roman
OutlineFileName:D:\_projects\yipkos\rfid\kiosk_assets\AMPY16FLSH0543 - CMSC 2016 Digital Survey - L19 Folder\AMPY16FLSH0543 - CMSC 2016 Digital Survey - L19 Folder\Document fonts\HelveticaNeueLTPro-Bd.otf
DataFormat:sfntData
UsesStandardEncoding:yes
isCFF:yes
FileLength:35688
FileModTime:1454550548
WeightClass:700
WidthClass:5
AngleClass:0
NameArray:0,Mac,18,HelveticaNeueLT Pro 75 Bd
NameArray:0,Mac,4,Helvetica Neue LT Pro 75 Bold
NameArray:0,Win,1,HelveticaNeueLT Pro 55 Roman
NameArray:0,Win,16,Helvetica Neue LT Pro
%EndFont

%BeginFont
Handler:DirectoryHandler
FontType:Type1
FontName:HelveticaNeueLTPro-Hv
FamilyName:Helvetica Neue LT Pro
StyleName:85 Heavy
FullName:Helvetica Neue LT Pro 85 Heavy
MenuName:HelveticaNeueLT Pro 65 Md
StyleBits:2
WritingScript:Roman
OutlineFileName:D:\_projects\yipkos\rfid\kiosk_assets\AMPY16FLSH0543 - CMSC 2016 Digital Survey - L19 Folder\AMPY16FLSH0543 - CMSC 2016 Digital Survey - L19 Folder\Document fonts\HelveticaNeueLTPro-Hv.otf
DataFormat:sfntData
UsesStandardEncoding:yes
isCFF:yes
FileLength:41356
FileModTime:1454550550
WeightClass:750
WidthClass:5
AngleClass:0
NameArray:0,Mac,18,HelveticaNeueLT Pro 85 Hv
NameArray:0,Mac,4,Helvetica Neue LT Pro 85 Heavy
NameArray:0,Win,1,HelveticaNeueLT Pro 65 Md
NameArray:0,Win,16,Helvetica Neue LT Pro
%EndFont

%BeginFont
Handler:DirectoryHandler
FontType:Type1
FontName:HelveticaNeueLTPro-It
FamilyName:Helvetica Neue LT Pro
StyleName:56 Italic
FullName:Helvetica Neue LT Pro 56 Italic
MenuName:HelveticaNeueLT Pro 55 Roman
StyleBits:1
WritingScript:Roman
OutlineFileName:D:\_projects\yipkos\rfid\kiosk_assets\AMPY16FLSH0543 - CMSC 2016 Digital Survey - L19 Folder\AMPY16FLSH0543 - CMSC 2016 Digital Survey - L19 Folder\Document fonts\HelveticaNeueLTPro-It.otf
DataFormat:sfntData
UsesStandardEncoding:yes
isCFF:yes
FileLength:34984
FileModTime:1454550548
WeightClass:400
WidthClass:5
AngleClass:1
NameArray:0,Mac,18,HelveticaNeueLT Pro 56 It
NameArray:0,Mac,4,Helvetica Neue LT Pro 56 Italic
NameArray:0,Win,1,HelveticaNeueLT Pro 55 Roman
NameArray:0,Win,16,Helvetica Neue LT Pro
%EndFont

%BeginFont
Handler:DirectoryHandler
FontType:Type1
FontName:HelveticaNeueLTPro-Md
FamilyName:Helvetica Neue LT Pro
StyleName:65 Medium
FullName:Helvetica Neue LT Pro 65 Medium
MenuName:HelveticaNeueLT Pro 65 Md
StyleBits:0
WritingScript:Roman
OutlineFileName:D:\_projects\yipkos\rfid\kiosk_assets\AMPY16FLSH0543 - CMSC 2016 Digital Survey - L19 Folder\AMPY16FLSH0543 - CMSC 2016 Digital Survey - L19 Folder\Document fonts\HelveticaNeueLTPro-Md.otf
DataFormat:sfntData
UsesStandardEncoding:yes
isCFF:yes
FileLength:42076
FileModTime:1454550546
WeightClass:500
WidthClass:5
AngleClass:0
NameArray:0,Mac,18,HelveticaNeueLT Pro 65 Md
NameArray:0,Mac,4,Helvetica Neue LT Pro 65 Medium
NameArray:0,Win,1,HelveticaNeueLT Pro 65 Md
NameArray:0,Win,16,Helvetica Neue LT Pro
%EndFont

%BeginFont
Handler:DirectoryHandler
FontType:Type1
FontName:HelveticaNeueLTPro-Roman
FamilyName:Helvetica Neue LT Pro
StyleName:55 Roman
FullName:Helvetica Neue LT Pro 55 Roman
MenuName:HelveticaNeueLT Pro 55 Roman
StyleBits:0
WritingScript:Roman
OutlineFileName:D:\_projects\yipkos\rfid\kiosk_assets\AMPY16FLSH0543 - CMSC 2016 Digital Survey - L19 Folder\AMPY16FLSH0543 - CMSC 2016 Digital Survey - L19 Folder\Document fonts\HelveticaNeueLTPro-Roman.otf
DataFormat:sfntData
UsesStandardEncoding:yes
isCFF:yes
FileLength:34860
FileModTime:1454550552
WeightClass:400
WidthClass:5
AngleClass:0
NameArray:0,Mac,18,HelveticaNeueLT Pro 55 Roman
NameArray:0,Mac,4,Helvetica Neue LT Pro 55 Roman
NameArray:0,Win,1,HelveticaNeueLT Pro 55 Roman
NameArray:0,Win,16,Helvetica Neue LT Pro
%EndFont

%BeginFont
Handler:DirectoryHandler
FontType:Type1
FontName:HelveticaNeueLTStd-Roman
FamilyName:Helvetica Neue LT Std
StyleName:55 Roman
FullName:Helvetica Neue LT Std 55 Roman
MenuName:HelveticaNeueLT Std
StyleBits:0
WritingScript:Roman
OutlineFileName:D:\_projects\yipkos\rfid\kiosk_assets\AMPY16FLSH0543 - CMSC 2016 Digital Survey - L19 Folder\AMPY16FLSH0543 - CMSC 2016 Digital Survey - L19 Folder\Document fonts\HelveticaNeueLTStd-Roman.otf
DataFormat:sfntData
UsesStandardEncoding:yes
isCFF:yes
FileLength:27476
FileModTime:1462557638
WeightClass:400
WidthClass:5
AngleClass:0
NameArray:0,Mac,18,HelveticaNeueLT Std
NameArray:0,Mac,4,Helvetica Neue LT Std 55 Roman
NameArray:0,Win,1,HelveticaNeueLT Std
NameArray:0,Win,16,Helvetica Neue LT Std
%EndFont

%BeginFont
Handler:DirectoryHandler
FontType:TrueType
FontName:TimesNewRomanPSMT
FamilyName:Times New Roman
StyleName:Regular
FullName:Times New Roman
MenuName:Times New Roman
StyleBits:0
WritingScript:Roman
OutlineFileName:D:\_projects\yipkos\rfid\kiosk_assets\AMPY16FLSH0543 - CMSC 2016 Digital Survey - L19 Folder\AMPY16FLSH0543 - CMSC 2016 Digital Survey - L19 Folder\Document fonts\Times New Roman.ttf
DataFormat:sfntData
FileLength:836380
FileModTime:1299758400
WeightClass:400
WidthClass:5
AngleClass:0
NameArray:0,Mac,4,Times New Roman
NameArray:0,Win,1,Times New Roman
%EndFont

%BeginFont
Handler:DirectoryHandler
FontType:Invalid
OutlineFileName:D:\_projects\yipkos\rfid\kiosk_assets\AMPY16FLSH0543 - CMSC 2016 Digital Survey - L19 Folder\AMPY16FLSH0543 - CMSC 2016 Digital Survey - L19 Folder\Document fonts\Trebuchet MS
FileModTime:1299758400
%EndFont

%BeginFont
Handler:DirectoryHandler
FontType:TrueType
FontName:TrebuchetMS
FamilyName:Trebuchet MS
StyleName:Regular
FullName:Trebuchet MS
MenuName:Trebuchet MS
StyleBits:0
WritingScript:Roman
OutlineFileName:D:\_projects\yipkos\rfid\kiosk_assets\AMPY16FLSH0543 - CMSC 2016 Digital Survey - L19 Folder\AMPY16FLSH0543 - CMSC 2016 Digital Survey - L19 Folder\Document fonts\TrebuchetMS.ttf
DataFormat:sfntData
FileLength:138848
FileModTime:1462557324
WeightClass:400
WidthClass:5
AngleClass:0
NameArray:0,Mac,4,Trebuchet MS
NameArray:0,Win,1,Trebuchet MS
%EndFont

%BeginFont
Handler:DirectoryHandler
FontType:TrueType
FontName:ZapfDingbatsITC
FamilyName:Zapf Dingbats
StyleName:Regular
FullName:Zapf Dingbats
MenuName:Zapf Dingbats
StyleBits:0
WritingScript:Roman
OutlineFileName:D:\_projects\yipkos\rfid\kiosk_assets\AMPY16FLSH0543 - CMSC 2016 Digital Survey - L19 Folder\AMPY16FLSH0543 - CMSC 2016 Digital Survey - L19 Folder\Document fonts\ZapfDingbats.ttf
DataFormat:sfntData
FileLength:154132
FileModTime:1440293532
WeightClass:400
WidthClass:5
AngleClass:0
NameArray:0,Mac,4,Zapf Dingbats
%EndFont

